…
    library(dplyr)
    library(lubridate)

    act1 <- 
            act %>%
            mutate(month = month(ymd(date))
                   , day = day(ymd(date))) %>%
            group_by(month, day) %>%
            summarise(sumSteps = sum(steps))
    act1

    ## # A tibble: 61 x 3
    ## # Groups:   month [2]
    ##    month   day sumSteps
    ##    <dbl> <int>    <int>
    ##  1    10     1       NA
    ##  2    10     2      126
    ##  3    10     3    11352
    ##  4    10     4    12116
    ##  5    10     5    13294
    ##  6    10     6    15420
    ##  7    10     7    11015
    ##  8    10     8       NA
    ##  9    10     9    12811
    ## 10    10    10     9900
    ## # ... with 51 more rows
…
What is the average daily activity pattern?
-------------------------------------------

1.) Make a time series plot (i.e. type = "l") of the 5-minute interval
(x-axis) and the average number of steps taken, averaged across all days
(y-axis).

    act3 <- act %>%
            group_by(interval) %>%
            summarise(
                    meanStepsTI = mean(steps, na.rm = TRUE)
            )
    act3

    ## # A tibble: 288 x 2
    ##    interval meanStepsTI
    ##       <int>       <dbl>
    ##  1        0      1.72  
    ##  2        5      0.340 
    ##  3       10      0.132 
    ##  4       15      0.151 
    ##  5       20      0.0755
    ##  6       25      2.09  
    ##  7       30      0.528 
    ##  8       35      0.868 
    ##  9       40      0     
    ## 10       45      1.47  
    ## # ... with 278 more rows
…
                    day = day(ymd(date))
                    ,
                    year = year(ymd(date))
                    ,
                    yearMonthDay = as.Date(paste(year, "-", month, "-", day, sep = ""))
            ) %>%
            group_by(yearMonthDay) %>%
            summarise(
                    sumStepsTI = sum(steps),
                    meanStepsTI = mean(steps),
                    medianStepsTI = median(steps)
            )
    act6

    ## # A tibble: 61 x 4
    ##    yearMonthDay sumStepsTI meanStepsTI medianStepsTI
    ##    <date>            <dbl>       <dbl>         <dbl>
    ##  1 2012-10-01       10766.      37.4            34.1
    ##  2 2012-10-02         126        0.438           0  
    ##  3 2012-10-03       11352       39.4             0  
    ##  4 2012-10-04       12116       42.1             0  
    ##  5 2012-10-05       13294       46.2             0  
    ##  6 2012-10-06       15420       53.5             0  
    ##  7 2012-10-07       11015       38.2             0  
    ##  8 2012-10-08       10766.      37.4            34.1
    ##  9 2012-10-09       12811       44.5             0  
    ## 10 2012-10-10        9900       34.4             0  
    ## # ... with 51 more rows
…
    act7 <- act5
    act7$WKND <- factor(sapply(act$date, is.weekend))

Make a panel plot containing a time series plot (i.e. type = "l") of the
5-minute interval (x-axis) and the average number of steps taken,
averaged across all weekday days or weekend days (y-axis).

    act8 <- act7 %>%
            group_by(interval, WKND) %>%
            summarise(
                    meanStepsTI = mean(steps, na.rm = TRUE)
            )
    act8

    ## # A tibble: 576 x 3
    ## # Groups:   interval [288]
    ##    interval WKND    meanStepsTI
    ##       <int> <fct>         <dbl>
    ##  1        0 weekday     2.07   
    ##  2        0 weekend     0.0425 
    ##  3        5 weekday     0.418  
    ##  4        5 weekend     0.0165 
    ##  5       10 weekday     0.176  
    ##  6       10 weekend     0.0189 
    ##  7       15 weekday     0.188  
    ##  8       15 weekend     0.00943
    ##  9       20 weekday     0.368  
    ## 10       20 weekend     0.262  
    ## # ... with 566 more rows
…
